2020-02-10 14:40:09
data:Array
(
    [customerRef] => CR_CART_0026041 GA
    [title] => Mr
    [firstName] => Zaakir
    [surname] => Abedin
    [line1] => Pimlico Tandoori Restaurant
    [line2] => 38 Moreton Street
    [line3] => London
    [line4] => United Kingdom
    [postCode] => SW1V 2PB
    [homePhoneNumber] => 07392658768
    [email] => zaakirabedin@gmail.com
    [accountHolderName] => MR ZM ABEDIN
    [bankSortCode] => 209660
    [accountNumber] => 40382051
    [apisecret] => 0PKJvepGPKA6w5nLrvGeKngqFQ
)
response:{"ID":"8491bf6d-bd3d-47dd-9340-dfbb9a29f779"}repsonse json:Array
(
    [ID] => 8491bf6d-bd3d-47dd-9340-dfbb9a29f779
)

2020-02-10 14:40:09
data:Array
(
    [scheduleName] => DD Dates 1/15 - Rolling
    [terminationType] => Until further notice
    [start] => 01/03/2020
    [isGiftAid] => True
    [atTheEnd] => Switch to further notice
    [paymentDayInMonth] => 1
    [paymentMonthInYear] => 3
    [amount] => 30.00
    [apisecret] => 0PKJvepGPKA6w5nLrvGeKngqFQ
)
response:{"DirectDebitRef":"CRGHT-MT001253","ID":"f0d5f3e4-a970-4ee4-b6ed-09cf77936c05"}repsonse json:Array
(
    [DirectDebitRef] => CRGHT-MT001253
    [ID] => f0d5f3e4-a970-4ee4-b6ed-09cf77936c05
)

