2020-03-08 17:09:37
data:Array
(
    [customerRef] => CR_CART_0026380 GA
    [title] => mr
    [firstName] => shaban
    [surname] => farooq
    [line1] => 9 Connaught Road
    [line3] => Slough
    [line4] => United Kingdom
    [postCode] => SL1 1SD
    [homePhoneNumber] => 07947744484
    [email] => shaban_farooq@hotmail.co.uk
    [accountHolderName] => mr
    [bankSortCode] => 776938
    [accountNumber] => 02396168
    [apisecret] => 0PKJvepGPKA6w5nLrvGeKngqFQ
)
response:{"ID":"f8a28cb6-cd19-4e46-8d77-144c46b143c6"}repsonse json:Array
(
    [ID] => f8a28cb6-cd19-4e46-8d77-144c46b143c6
)

2020-03-08 17:09:38
data:Array
(
    [scheduleName] => DD Dates 1/15 - Rolling
    [terminationType] => Until further notice
    [start] => 01/04/2020
    [isGiftAid] => True
    [atTheEnd] => Switch to further notice
    [paymentDayInMonth] => 1
    [paymentMonthInYear] => 4
    [amount] => 30.00
    [apisecret] => 0PKJvepGPKA6w5nLrvGeKngqFQ
)
response:{"DirectDebitRef":"CRGHT-MT001288","ID":"7fee58ca-89cb-4df7-a6f1-1f40e52f34a6"}repsonse json:Array
(
    [DirectDebitRef] => CRGHT-MT001288
    [ID] => 7fee58ca-89cb-4df7-a6f1-1f40e52f34a6
)

