2020-04-22 13:24:36
data:Array
(
    [customerRef] => CR_CART_0027927 GA
    [title] => Mr
    [firstName] => Sajad
    [surname] => Mahmood
    [line1] => 24 Colston Close
    [line3] => Bradford
    [line4] => United Kingdom
    [postCode] => BD8 0BN
    [homePhoneNumber] => 07805471428
    [email] => halaldesigner@gmail.com
    [accountHolderName] => Sajad Mahmood 
    [bankSortCode] => 401315
    [accountNumber] => 42708248
    [apisecret] => 0PKJvepGPKA6w5nLrvGeKngqFQ
)
response:{"ID":"7d555847-0f00-418a-9839-691e8f349121"}repsonse json:Array
(
    [ID] => 7d555847-0f00-418a-9839-691e8f349121
)

2020-04-22 13:24:36
data:Array
(
    [scheduleName] => DD Dates 1/15 - Rolling
    [terminationType] => Until further notice
    [start] => 15/05/2020
    [isGiftAid] => True
    [atTheEnd] => Switch to further notice
    [paymentDayInMonth] => 15
    [paymentMonthInYear] => 5
    [amount] => 1.00
    [apisecret] => 0PKJvepGPKA6w5nLrvGeKngqFQ
)
response:{"DirectDebitRef":"CRGHT-MT001307","ID":"c2ed4b5f-02ce-4bf9-848a-a90e91ed8e47"}repsonse json:Array
(
    [DirectDebitRef] => CRGHT-MT001307
    [ID] => c2ed4b5f-02ce-4bf9-848a-a90e91ed8e47
)

