2020-03-20 19:20:10
data:Array
(
    [customerRef] => CR_CART_0026624
    [title] => Miss
    [firstName] => Summaira
    [surname] => sultan
    [line1] => 94 Fagley Road
    [line3] => Bradford
    [line4] => United Kingdom
    [postCode] => BD2 3JJ
    [homePhoneNumber] => 07908838361
    [email] => summairasultan@hotmail.com
    [accountHolderName] => S sultan 
    [bankSortCode] => 401315
    [accountNumber] => 12475448
    [apisecret] => 0PKJvepGPKA6w5nLrvGeKngqFQ
)
response:{"ID":"c55ed584-a40a-4be8-828d-6ca856dd5a92"}repsonse json:Array
(
    [ID] => c55ed584-a40a-4be8-828d-6ca856dd5a92
)

2020-03-20 19:20:11
data:Array
(
    [scheduleName] => DD Dates 1/15 - Rolling
    [terminationType] => Until further notice
    [start] => 15/04/2020
    [isGiftAid] => False
    [atTheEnd] => Switch to further notice
    [paymentDayInMonth] => 15
    [paymentMonthInYear] => 4
    [amount] => 10.00
    [apisecret] => 0PKJvepGPKA6w5nLrvGeKngqFQ
)
response:{"DirectDebitRef":"CRGHT-MT001293","ID":"cbf1d371-2fea-4882-8eac-c3f27a7e6fc5"}repsonse json:Array
(
    [DirectDebitRef] => CRGHT-MT001293
    [ID] => cbf1d371-2fea-4882-8eac-c3f27a7e6fc5
)

