2020-07-23 03:51:08
data:Array
(
    [scheduleName] => DD Dates 1/15 - Rolling
    [terminationType] => Until further notice
    [start] => 15/08/2020
    [isGiftAid] => False
    [atTheEnd] => Switch to further notice
    [paymentDayInMonth] => 15
    [paymentMonthInYear] => 8
    [amount] => 2.00
    [apisecret] => 0PKJvepGPKA6w5nLrvGeKngqFQ
)
response:{"DirectDebitRef":"CRGHT-MTNEUG681","ID":"06b4c79a-c05a-4e2b-b66c-cc701ccd6a2c"}repsonse json:Array
(
    [DirectDebitRef] => CRGHT-MTNEUG681
    [ID] => 06b4c79a-c05a-4e2b-b66c-cc701ccd6a2c
)

