2019-06-03 02:37:54
data:Array
(
    [customerRef] => CR_CART_0020091 GA
    [title] => Ms
    [firstName] => Faiza
    [surname] => Azam
    [line1] => 5 Worple Close
    [line3] => Harrow
    [line4] => United Kingdom
    [postCode] => HA2 9ST
    [homePhoneNumber] => 07538006749
    [email] => faizaji@hotmail.com
    [accountHolderName] => F Azam
    [bankSortCode] => 202748
    [accountNumber] => 70995096
    [apisecret] => 0PKJvepGPKA6w5nLrvGeKngqFQ
)
response:{"ID":"eaa444a6-4c80-4a72-83e0-6f53ddcde262"}repsonse json:Array
(
    [ID] => eaa444a6-4c80-4a72-83e0-6f53ddcde262
)

2019-06-03 02:37:54
data:Array
(
    [scheduleName] => DD Dates 1/15 - Rolling
    [terminationType] => Until further notice
    [start] => 01/07/2019
    [isGiftAid] => True
    [atTheEnd] => Switch to further notice
    [paymentDayInMonth] => 1
    [paymentMonthInYear] => 7
    [amount] => 40.00
    [apisecret] => 0PKJvepGPKA6w5nLrvGeKngqFQ
)
response:{"DirectDebitRef":"CRGHT-MT001079","ID":"361c9ce1-9100-412d-b8b2-12618fcf3fac"}repsonse json:Array
(
    [DirectDebitRef] => CRGHT-MT001079
    [ID] => 361c9ce1-9100-412d-b8b2-12618fcf3fac
)

2019-06-03 15:27:05
data:Array
(
    [customerRef] => CR_CART_0020233
    [title] => Ms
    [firstName] => Farzana
    [surname] => Nasim
    [line1] => 27 Woodstock Avenue
    [line3] => Sutton
    [line4] => United Kingdom
    [postCode] => SM3 9EG
    [homePhoneNumber] => 07905497433
    [email] => farzanasim@hotmail.co.uk
    [accountHolderName] => F Nasim
    [bankSortCode] => 230580
    [accountNumber] => 55736150
    [apisecret] => 0PKJvepGPKA6w5nLrvGeKngqFQ
)
response:{"ID":"18c6f724-a2e2-4239-ab99-692d7dc93921"}repsonse json:Array
(
    [ID] => 18c6f724-a2e2-4239-ab99-692d7dc93921
)

2019-06-03 15:27:06
data:Array
(
    [scheduleName] => DD Dates 1/15 - Rolling
    [terminationType] => Until further notice
    [start] => 01/07/2019
    [isGiftAid] => False
    [atTheEnd] => Switch to further notice
    [paymentDayInMonth] => 1
    [paymentMonthInYear] => 7
    [amount] => 20.00
    [apisecret] => 0PKJvepGPKA6w5nLrvGeKngqFQ
)
response:{"DirectDebitRef":"CRGHT-MT001080","ID":"15a25056-acf2-4917-999b-c0bc45b11554"}repsonse json:Array
(
    [DirectDebitRef] => CRGHT-MT001080
    [ID] => 15a25056-acf2-4917-999b-c0bc45b11554
)

2019-06-03 15:30:30
data:Array
(
    [customerRef] => CR_CART_0020237 GA
    [title] => Ms
    [firstName] => Mamoona
    [surname] => Saleem
    [line1] => 14D Aisgill Avenue
    [line3] => London
    [line4] => United Kingdom
    [postCode] => W14 9NF
    [homePhoneNumber] => 07460012298
    [email] => shahmehmoona@hotmail.com
    [accountHolderName] => Lloyds bank 
    [bankSortCode] => 774042
    [accountNumber] => 65986462
    [apisecret] => 0PKJvepGPKA6w5nLrvGeKngqFQ
)
response:{"ID":"cb9e9ee1-0f36-4278-8c61-653865bbce93"}repsonse json:Array
(
    [ID] => cb9e9ee1-0f36-4278-8c61-653865bbce93
)

2019-06-03 15:30:31
data:Array
(
    [scheduleName] => DD Dates 1/15 - Rolling
    [terminationType] => Until further notice
    [start] => 01/07/2019
    [isGiftAid] => True
    [atTheEnd] => Switch to further notice
    [paymentDayInMonth] => 1
    [paymentMonthInYear] => 7
    [amount] => 10.00
    [apisecret] => 0PKJvepGPKA6w5nLrvGeKngqFQ
)
response:{"DirectDebitRef":"CRGHT-MT001081","ID":"c271ce8b-6ebf-4415-84b0-e426ba64b1fb"}repsonse json:Array
(
    [DirectDebitRef] => CRGHT-MT001081
    [ID] => c271ce8b-6ebf-4415-84b0-e426ba64b1fb
)

2019-06-03 20:22:04
data:Array
(
    [customerRef] => CR_CART_0020351 GA
    [title] => Mr
    [firstName] => Miladur
    [surname] => Chowdhury
    [line1] => Flat 3
    [line2] => 11 Rifle Street
    [line3] => London
    [line4] => United Kingdom
    [postCode] => E14 6FH
    [homePhoneNumber] => 07377368203
    [email] => abu_dawud@hotmail.co.uk
    [accountHolderName] => M Chowdhury
    [bankSortCode] => 205706
    [accountNumber] => 23340740
    [apisecret] => 0PKJvepGPKA6w5nLrvGeKngqFQ
)
response:{"ID":"cf6f3845-1197-44b9-a9f7-4bd73f3f71b4"}repsonse json:Array
(
    [ID] => cf6f3845-1197-44b9-a9f7-4bd73f3f71b4
)

2019-06-03 20:22:04
data:Array
(
    [scheduleName] => DD Dates 1/15 - Rolling
    [terminationType] => Until further notice
    [start] => 01/07/2019
    [isGiftAid] => True
    [atTheEnd] => Switch to further notice
    [paymentDayInMonth] => 1
    [paymentMonthInYear] => 7
    [amount] => 20.00
    [apisecret] => 0PKJvepGPKA6w5nLrvGeKngqFQ
)
response:{"DirectDebitRef":"CRGHT-MT001082","ID":"4027aaeb-3f33-4e8e-bffb-f789947e3eed"}repsonse json:Array
(
    [DirectDebitRef] => CRGHT-MT001082
    [ID] => 4027aaeb-3f33-4e8e-bffb-f789947e3eed
)

