2019-05-16 07:21:30
data:Array
(
    [customerRef] => CR_CART_0014601 GA
    [title] => Mr.
    [firstName] => Abhinay
    [surname] => Sood
    [line1] => Londis
    [line2] => 25 Bournemouth Road
    [line3] => Poole
    [line4] => United Kingdom
    [postCode] => BH14 0EF
    [homePhoneNumber] => +44 9875652572
    [email] => test1@gmail.com
    [accountHolderName] => Bacs
    [bankSortCode] => 200000
    [accountNumber] => 55779911
    [apisecret] => 0PKJvepGPKA6w5nLrvGeKngqFQ
)
response:{"ID":"4fe49575-9bab-4830-a9b8-d63fa93c188c"}repsonse json:Array
(
    [ID] => 4fe49575-9bab-4830-a9b8-d63fa93c188c
)

2019-05-16 07:21:31
data:Array
(
    [scheduleName] => DD Dates 1/15 - Rolling
    [terminationType] => Until further notice
    [start] => 01/06/2019
    [isGiftAid] => True
    [atTheEnd] => Switch to further notice
    [paymentDayInMonth] => 1
    [paymentMonthInYear] => 6
    [amount] => 10.00
    [apisecret] => 0PKJvepGPKA6w5nLrvGeKngqFQ
)
response:{"DirectDebitRef":"CRGHT-MT000966","ID":"6e8ff388-4328-46d0-9d76-32fad51212a1"}repsonse json:Array
(
    [DirectDebitRef] => CRGHT-MT000966
    [ID] => 6e8ff388-4328-46d0-9d76-32fad51212a1
)

2019-05-16 07:30:40
data:Array
(
    [customerRef] => CR_CART_0014602 GA
    [title] => Mr.
    [firstName] => Abhinay
    [surname] => Sood
    [line1] => Londis
    [line2] => 25 Bournemouth Road
    [line3] => Poole
    [line4] => United Kingdom
    [postCode] => BH14 0EF
    [homePhoneNumber] => +44 9875652572
    [email] => test1@gmail.com
    [accountHolderName] => Bacs
    [bankSortCode] => 200000
    [accountNumber] => 55779911
    [apisecret] => 0PKJvepGPKA6w5nLrvGeKngqFQ
)
response:{"ID":"ee632d26-c4cf-47ca-a307-e85f79e375df"}repsonse json:Array
(
    [ID] => ee632d26-c4cf-47ca-a307-e85f79e375df
)

2019-05-16 07:30:40
data:Array
(
    [scheduleName] => DD Dates 1/15 - Rolling
    [terminationType] => Until further notice
    [start] => 01/06/2019
    [isGiftAid] => True
    [atTheEnd] => Switch to further notice
    [paymentDayInMonth] => 1
    [paymentMonthInYear] => 6
    [amount] => 15000.00
    [apisecret] => 0PKJvepGPKA6w5nLrvGeKngqFQ
)
response:{"error":"Cannot create contract with £15,000.00 as regular amount. Client is limited to a maximum amount of £800.00 per single payment."}repsonse json:Array
(
    [error] => Cannot create contract with £15,000.00 as regular amount. Client is limited to a maximum amount of £800.00 per single payment.
)

2019-05-16 07:31:49
data:Array
(
    [customerRef] => CR_CART_0014603 GA
    [title] => Mr.
    [firstName] => Abhinay
    [surname] => Sood
    [line1] => Londis
    [line2] => 25 Bournemouth Road
    [line3] => Poole
    [line4] => United Kingdom
    [postCode] => BH14 0EF
    [homePhoneNumber] => +44 9875652572
    [email] => test1@gmail.com
    [accountHolderName] => Bacs
    [bankSortCode] => 200000
    [accountNumber] => 55779911
    [apisecret] => 0PKJvepGPKA6w5nLrvGeKngqFQ
)
response:{"ID":"84fccd3a-48c6-4942-bf8d-fa56cce477c7"}repsonse json:Array
(
    [ID] => 84fccd3a-48c6-4942-bf8d-fa56cce477c7
)

2019-05-16 07:31:49
data:Array
(
    [scheduleName] => DD Dates 1/15 - Rolling
    [terminationType] => Until further notice
    [start] => 01/06/2019
    [isGiftAid] => True
    [atTheEnd] => Switch to further notice
    [paymentDayInMonth] => 1
    [paymentMonthInYear] => 6
    [amount] => 800.00
    [apisecret] => 0PKJvepGPKA6w5nLrvGeKngqFQ
)
response:{"DirectDebitRef":"CRGHT-MT000968","ID":"9b67dba8-36e7-4c09-b46b-badf997775ac"}repsonse json:Array
(
    [DirectDebitRef] => CRGHT-MT000968
    [ID] => 9b67dba8-36e7-4c09-b46b-badf997775ac
)

