2019-02-24 00:31:37
data:Array
(
    [customerRef] => CR_CART_0011269 GA
    [title] => Ms
    [firstName] => Harriet
    [surname] => Levers
    [line1] => 161 Dawlish Road
    [line3] => Birmingham
    [line4] => United Kingdom
    [postCode] => B29 7AH
    [homePhoneNumber] => 07852746834
    [email] => harrietlevers@gmail.com
    [accountHolderName] => Harriet Levers
    [bankSortCode] => 772226
    [accountNumber] => 50474860
    [apisecret] => 0PKJvepGPKA6w5nLrvGeKngqFQ
)
response:{"ID":"18a60935-a7c7-45cd-8d2b-692f08991a00"}repsonse json:Array
(
    [ID] => 18a60935-a7c7-45cd-8d2b-692f08991a00
)

2019-02-24 00:31:37
data:Array
(
    [scheduleName] => DD Dates 1/15 - Rolling
    [terminationType] => Until further notice
    [start] => 15/03/2019
    [isGiftAid] => True
    [atTheEnd] => Switch to further notice
    [paymentDayInMonth] => 15
    [paymentMonthInYear] => 3
    [amount] => 300.00
    [apisecret] => 0PKJvepGPKA6w5nLrvGeKngqFQ
)
response:{"DirectDebitRef":"CRGHT-MT000920","ID":"47e821b9-a2f8-4844-804e-acc075f54851"}repsonse json:Array
(
    [DirectDebitRef] => CRGHT-MT000920
    [ID] => 47e821b9-a2f8-4844-804e-acc075f54851
)

2019-02-24 07:01:49
data:Array
(
    [customerRef] => CR_CART_0011271 GA
    [title] => Mr
    [firstName] => Mirza
    [surname] => Baig
    [line1] => 8 Ballard Road
    [line3] => Camberley
    [line4] => United Kingdom
    [postCode] => GU15 4AA
    [homePhoneNumber] => 00447812835826
    [email] => m.baig33@ntlworld.com
    [accountHolderName] => M M baig
    [bankSortCode] => 090128
    [accountNumber] => 15878211
    [apisecret] => 0PKJvepGPKA6w5nLrvGeKngqFQ
)
response:{"ID":"a81ed7ea-b741-4792-8f09-e40481e5f734"}repsonse json:Array
(
    [ID] => a81ed7ea-b741-4792-8f09-e40481e5f734
)

2019-02-24 07:01:49
data:Array
(
    [scheduleName] => DD Dates 1/15 - Rolling
    [terminationType] => Until further notice
    [start] => 15/03/2019
    [isGiftAid] => True
    [atTheEnd] => Switch to further notice
    [paymentDayInMonth] => 15
    [paymentMonthInYear] => 3
    [amount] => 12.00
    [apisecret] => 0PKJvepGPKA6w5nLrvGeKngqFQ
)
response:{"DirectDebitRef":"CRGHT-MT000921","ID":"6e2dfba0-1d9d-4938-b7e1-a484e3ce20d4"}repsonse json:Array
(
    [DirectDebitRef] => CRGHT-MT000921
    [ID] => 6e2dfba0-1d9d-4938-b7e1-a484e3ce20d4
)

2019-02-24 22:52:21
data:Array
(
    [customerRef] => CR_CART_0011285 GA
    [title] => Mr
    [firstName] => Aftab
    [surname] => Hussain
    [line1] => 88 Coventon Road
    [line3] => Aylesbury
    [line4] => United Kingdom
    [postCode] => HP19 9ND
    [homePhoneNumber] => 07885665624
    [email] => abidaahmed23@hotmail.co.uk
    [accountHolderName] => Mohammed Aftab Hussain
    [bankSortCode] => 600131
    [accountNumber] => 50802089
    [apisecret] => 0PKJvepGPKA6w5nLrvGeKngqFQ
)
response:{"ID":"bff82d15-a910-400d-84af-1c0073426827"}repsonse json:Array
(
    [ID] => bff82d15-a910-400d-84af-1c0073426827
)

2019-02-24 22:52:22
data:Array
(
    [scheduleName] => DD Dates 1/15 - Rolling
    [terminationType] => Until further notice
    [start] => 15/03/2019
    [isGiftAid] => True
    [atTheEnd] => Switch to further notice
    [paymentDayInMonth] => 15
    [paymentMonthInYear] => 3
    [amount] => 10.00
    [apisecret] => 0PKJvepGPKA6w5nLrvGeKngqFQ
)
response:{"DirectDebitRef":"CRGHT-MT000922","ID":"1513b675-c211-45f4-b1c3-402e6f351555"}repsonse json:Array
(
    [DirectDebitRef] => CRGHT-MT000922
    [ID] => 1513b675-c211-45f4-b1c3-402e6f351555
)

