2020-09-03 23:16:26
data:Array
(
    [customerRef] => CR_CART_0047171
    [title] => miss
    [firstName] => Maisie
    [surname] => Jack
    [line1] => 2 Rusham Park Avenue, Egham, UK
    [line4] => United Kingdom
    [postCode] => TW20 9NB
    [email] => maisie@maisiejack.com
    [accountHolderName] => Maisie Jack 
    [bankSortCode] => 040004
    [accountNumber] => 86640052
    [apisecret] => 0PKJvepGPKA6w5nLrvGeKngqFQ
)
response:{"ID":"ea2f1353-7340-4f23-86be-eb00803d910c"}repsonse json:Array
(
    [ID] => ea2f1353-7340-4f23-86be-eb00803d910c
)

2020-09-03 23:16:27
data:Array
(
    [scheduleName] => DD Dates 1/15 - Rolling
    [terminationType] => Until further notice
    [start] => 01/10/2020
    [isGiftAid] => False
    [atTheEnd] => Switch to further notice
    [paymentDayInMonth] => 1
    [paymentMonthInYear] => 10
    [amount] => 10.00
    [apisecret] => 0PKJvepGPKA6w5nLrvGeKngqFQ
)
response:{"DirectDebitRef":"CRGHT-MT86L4POO","ID":"9b9c184b-d0da-44b1-b295-a32ae15c4629"}repsonse json:Array
(
    [DirectDebitRef] => CRGHT-MT86L4POO
    [ID] => 9b9c184b-d0da-44b1-b295-a32ae15c4629
)

2020-09-03 23:35:55
data:Array
(
    [customerRef] => CR_CART_0047173 GA
    [title] => mr
    [firstName] => Nadeem
    [surname] => Naz
    [line1] => 1 Whitehaven
    [line4] => United Kingdom
    [postCode] => SL13RX
    [email] => nadeem_naz@hotmail.com
    [accountHolderName] => Nadeem Naz
    [bankSortCode] => 402502
    [accountNumber] => 61732153
    [apisecret] => 0PKJvepGPKA6w5nLrvGeKngqFQ
)
response:{"ID":"0d414a72-aaa9-4dea-adb5-47def0c5ce81"}repsonse json:Array
(
    [ID] => 0d414a72-aaa9-4dea-adb5-47def0c5ce81
)

2020-09-03 23:35:55
data:Array
(
    [scheduleName] => DD Dates 1/15 - Rolling
    [terminationType] => Until further notice
    [start] => 01/10/2020
    [isGiftAid] => True
    [atTheEnd] => Switch to further notice
    [paymentDayInMonth] => 1
    [paymentMonthInYear] => 10
    [amount] => 5.00
    [apisecret] => 0PKJvepGPKA6w5nLrvGeKngqFQ
)
response:{"DirectDebitRef":"CRGHT-MT3NDAWDD","ID":"1ef395d1-4d6b-463c-b3cc-243e5bc943a2"}repsonse json:Array
(
    [DirectDebitRef] => CRGHT-MT3NDAWDD
    [ID] => 1ef395d1-4d6b-463c-b3cc-243e5bc943a2
)

