2019-05-12 01:17:14
data:Array
(
    [customerRef] => CR_CART_0013739 GA
    [title] => Mr
    [firstName] => JAKIR
    [surname] => HUSSAIN
    [line1] => Flat 12, Abingdon House
    [line2] => Boundary Street
    [line3] => London
    [line4] => United Kingdom
    [postCode] => E2 7HJ
    [homePhoneNumber] => 07752332146
    [email] => hussain.jakir@hotmail.co.uk
    [accountHolderName] => Mr J Hussain 
    [bankSortCode] => 070246
    [accountNumber] => 25312972
    [apisecret] => 0PKJvepGPKA6w5nLrvGeKngqFQ
)
response:{"ID":"9ba7e1ab-d1c5-40be-9785-da950ac098b9"}repsonse json:Array
(
    [ID] => 9ba7e1ab-d1c5-40be-9785-da950ac098b9
)

2019-05-12 01:17:14
data:Array
(
    [scheduleName] => DD Dates 1/15 - Rolling
    [terminationType] => Until further notice
    [start] => 01/06/2019
    [isGiftAid] => True
    [atTheEnd] => Switch to further notice
    [paymentDayInMonth] => 1
    [paymentMonthInYear] => 6
    [amount] => 20.00
    [apisecret] => 0PKJvepGPKA6w5nLrvGeKngqFQ
)
response:{"DirectDebitRef":"CRGHT-MT000965","ID":"11001a1c-f435-4a82-88de-98d7f31c6ce6"}repsonse json:Array
(
    [DirectDebitRef] => CRGHT-MT000965
    [ID] => 11001a1c-f435-4a82-88de-98d7f31c6ce6
)

